@startuml
annotation java.lang.Override
annotation javax.ejb.Stateless
annotation javax.jws.WebMethod
annotation javax.jws.WebParam
annotation javax.jws.WebService
class com.rabbitmq.client.Channel
class com.rabbitmq.client.Connection
class com.rabbitmq.client.ConnectionFactory
class com.rabbitmq.client.ConsumerCancelledException
class com.rabbitmq.client.MessageProperties
class com.rabbitmq.client.QueueingConsumer
class com.rabbitmq.client.ShutdownSignalException
class java.io.IOException
class java.lang.Thread
class java.util.ArrayList
class java.util.List
class java.util.logging.Level
class java.util.logging.Logger
class javax.jws.Oneway
class org.me.post.PosterMessage
class org.me.post.QosManager
class org.me.post.Worker
org.me.post.PosterMessage ..> javax.ejb.Stateless
org.me.post.PosterMessage ..> javax.jws.WebMethod
org.me.post.PosterMessage ..> javax.jws.WebParam
org.me.post.PosterMessage ..> javax.jws.WebService
org.me.post.PosterMessage ..> com.rabbitmq.client.Channel
org.me.post.PosterMessage ..> com.rabbitmq.client.Connection
org.me.post.PosterMessage ..> com.rabbitmq.client.ConnectionFactory
org.me.post.PosterMessage ..> com.rabbitmq.client.MessageProperties
org.me.post.PosterMessage ..> java.io.IOException
org.me.post.PosterMessage ..> java.util.logging.Level
org.me.post.PosterMessage ..> java.util.logging.Logger
org.me.post.PosterMessage ..> javax.jws.Oneway
org.me.post.QosManager ..> com.rabbitmq.client.Channel
org.me.post.QosManager ..> com.rabbitmq.client.Connection
org.me.post.QosManager ..> com.rabbitmq.client.ConnectionFactory
org.me.post.QosManager ..> com.rabbitmq.client.MessageProperties
org.me.post.QosManager ..> java.io.IOException
org.me.post.QosManager ..> java.util.ArrayList
org.me.post.QosManager ..> java.util.List
org.me.post.QosManager ..> java.util.logging.Level
org.me.post.QosManager ..> java.util.logging.Logger
org.me.post.Worker ..> java.lang.Override
org.me.post.Worker ..> com.rabbitmq.client.Channel
org.me.post.Worker ..> com.rabbitmq.client.Connection
org.me.post.Worker ..> com.rabbitmq.client.ConnectionFactory
org.me.post.Worker ..> com.rabbitmq.client.ConsumerCancelledException
org.me.post.Worker ..> com.rabbitmq.client.QueueingConsumer
org.me.post.Worker ..> com.rabbitmq.client.ShutdownSignalException
org.me.post.Worker ..> java.io.IOException
org.me.post.Worker --|> java.lang.Thread
org.me.post.Worker ..> java.util.logging.Level
org.me.post.Worker ..> java.util.logging.Logger
@enduml